^C:\USERS\123\DOCUMENTS\VISUAL STUDIO 2010\PROJECTS\CAJERO\CAJERO\FORM1.RESX|C:\USERS\123\DOCUMENTS\VISUAL STUDIO 2010\PROJECTS\CAJERO\CAJERO\PROPERTIES\RESOURCES.RESX
C:\USERS\123\DOCUMENTS\VISUAL STUDIO 2010\PROJECTS\CAJERO\CAJERO\OBJ\X86\DEBUG\CAJERO.FORM1.RESOURCES
C:\USERS\123\DOCUMENTS\VISUAL STUDIO 2010\PROJECTS\CAJERO\CAJERO\OBJ\X86\DEBUG\CAJERO.PROPERTIES.RESOURCES.RESOURCES
^F:\CAJERO\CAJERO\CAJERO\FORM1.RESX|F:\CAJERO\CAJERO\CAJERO\PROPERTIES\RESOURCES.RESX
F:\CAJERO\CAJERO\CAJERO\OBJ\X86\DEBUG\CAJERO.FORM1.RESOURCES
F:\CAJERO\CAJERO\CAJERO\OBJ\X86\DEBUG\CAJERO.PROPERTIES.RESOURCES.RESOURCES
^C:\USERS\123\PICTURES\CAJERO\CAJERO\CAJERO\FORM1.RESX|C:\USERS\123\PICTURES\CAJERO\CAJERO\CAJERO\PROPERTIES\RESOURCES.RESX
C:\USERS\123\PICTURES\CAJERO\CAJERO\CAJERO\OBJ\X86\DEBUG\CAJERO.FORM1.RESOURCES
C:\USERS\123\PICTURES\CAJERO\CAJERO\CAJERO\OBJ\X86\DEBUG\CAJERO.PROPERTIES.RESOURCES.RESOURCES
